경찰청 범죄 발생 지역별 통계 — crime • datatoys
…
    소스코드

    https://www.data.go.kr/data/3074462/fileData.do

    예시 코드

crime |> 
  tidyr::pivot_longer(
    cols = 서울:도시이외, 
    names_to = "시군", 
    values_to = "건"
  )  
#> # A tibble: 3,344 × 4
#>    범죄대분류 범죄중분류 시군         건
#>    <chr>      <chr>      <chr>     <int>
#>  1 강력범죄   살인기수   서울         67
#>  2 강력범죄   살인기수   부산         20
#>  3 강력범죄   살인기수   대구         13
#>  4 강력범죄   살인기수   인천         17
#>  5 강력범죄   살인기수   광주         11
#>  6 강력범죄   살인기수   대전          8
#>  7 강력범죄   살인기수   울산         12
#>  8 강력범죄   살인기수   세종          2
#>  9 강력범죄   살인기수   경기.고양     8
#> 10 강력범죄   살인기수   경기.과천     2
#> # … with 3,334 more rows
…
